%YAML 1.1
%TAG !u! tag:unity3d.com,2011:
--- !u!114 &11400000
MonoBehaviour:
  m_ObjectHideFlags: 0
  m_CorrespondingSourceObject: {fileID: 0}
  m_PrefabInstance: {fileID: 0}
  m_PrefabAsset: {fileID: 0}
  m_GameObject: {fileID: 0}
  m_Enabled: 1
  m_EditorHideFlags: 0
  m_Script: {fileID: 11500000, guid: c305dcab990364c49babef737e8464ed, type: 3}
  m_Name: Industrial_shop_map
  m_EditorClassIdentifier: 
  allUpgrade:
  - name: Lvl_1
    price: 15
    allUpgradeParameters:
    - nameParametr: "\u0414\u043E\u0445\u043E\u0434 \u0441 \u043F\u043E\u0441\u0435\u0442\u0438\u0442\u0435\u043B\u044F"
      idParameter: prodaction_money
      value: 3
  - name: Lvl_2
    price: 40
    allUpgradeParameters:
    - nameParametr: "\u0414\u043E\u0445\u043E\u0434 \u0441 \u043F\u043E\u0441\u0435\u0442\u0438\u0442\u0435\u043B\u044F"
      idParameter: prodaction_money
      value: 5
  - name: Lvl_3
    price: 80
    allUpgradeParameters:
    - nameParametr: "\u0414\u043E\u0445\u043E\u0434 \u0441 \u043F\u043E\u0441\u0435\u0442\u0438\u0442\u0435\u043B\u044F"
      idParameter: prodaction_money
      value: 7
